[
    {"country_code": "ZIMB", "country_name": "Zimbabwe"},
    {"country_code": "BOS", "country_name": "Bostwana"},
    {"country_code": "KKL", "country_name": "Kukulele"},
    {"country_code": "AFR", "country_name": "Aphryka"},
    {"country_code": "CAN", "country_name": "Canada"}
]