 [
     {
                "_id": "CUSTOM",
                "_displayName": "CUSTOM",
                "worksheet_type": "FLEXCON",
                "item_pricing_group": "CUSTOM",
                "group_name": "CUSTOM",
                "group_desc": "CUSTOM"
            }, {
                "_id": "ICRP-1.5-2",
                "_displayName": "ICRP-1.5-2",
                "worksheet_type": "FLEXCON",
                "item_pricing_group": "ICRP-1.5-2",
                "group_name": "ICRP-1.5-2",
                "group_desc": "ICRP-1.5-2"
            }, {
                "_id": "ICRP-12-14",
                "_displayName": "ICRP-12-14",
                "worksheet_type": "FLEXCON",
                "item_pricing_group": "ICRP-12-14",
                "group_name": "ICRP-12-14",
                "group_desc": "ICRP-12-14"
            }, {
                "_id": "ICRP-2.5-3",
                "_displayName": "ICRP-2.5-3",
                "worksheet_type": "FLEXCON",
                "item_pricing_group": "ICRP-2.5-3",
                "group_name": "ICRP-2.5-3",
                "group_desc": "ICRP-2.5-3"
            }, {
                "_id": "ICRP-4-6",
                "_displayName": "ICRP-4-6",
                "worksheet_type": "FLEXCON",
                "item_pricing_group": "ICRP-4-6",
                "group_name": "ICRP-4-6",
                "group_desc": "ICRP-4-6"
            }, {
                "_id": "ICRP-8-10",
                "_displayName": "ICRP-8-10",
                "worksheet_type": "FLEXCON",
                "item_pricing_group": "ICRP-8-10",
                "group_name": "ICRP-8-10",
                "group_desc": "ICRP-8-10"
            }, {
                "_id": "IDS-1.5",
                "_displayName": "IDS-1.5",
                "worksheet_type": "FLEXCON",
                "item_pricing_group": "IDS-1.5",
                "group_name": "IDS-1.5",
                "group_desc": "IDS-1.5"
            }, {
                "_id": "IDS-10",
                "_displayName": "IDS-10",
                "worksheet_type": "FLEXCON",
                "item_pricing_group": "IDS-10",
                "group_name": "IDS-10",
                "group_desc": "IDS-10"
            }, {
                "_id": "IDS-12",
                "_displayName": "IDS-12",
                "worksheet_type": "FLEXCON",
                "item_pricing_group": "IDS-12",
                "group_name": "IDS-12",
                "group_desc": "IDS-12"
            }, {
                "_id": "IDS-14",
                "_displayName": "IDS-14",
                "worksheet_type": "FLEXCON",
                "item_pricing_group": "IDS-14",
                "group_name": "IDS-14",
                "group_desc": "IDS-14"
            }, {
                "_id": "IDS-2",
                "_displayName": "IDS-2",
                "worksheet_type": "FLEXCON",
                "item_pricing_group": "IDS-2",
                "group_name": "IDS-2",
                "group_desc": "IDS-2"
            }, {
                "_id": "IDS-2.5",
                "_displayName": "IDS-2.5",
                "worksheet_type": "FLEXCON",
                "item_pricing_group": "IDS-2.5",
                "group_name": "IDS-2.5",
                "group_desc": "IDS-2.5"
            }, {
                "_id": "IDS-3",
                "_displayName": "IDS-3",
                "worksheet_type": "FLEXCON",
                "item_pricing_group": "IDS-3",
                "group_name": "IDS-3",
                "group_desc": "IDS-3"
            }, {
                "_id": "IDS-4",
                "_displayName": "IDS-4",
                "worksheet_type": "FLEXCON",
                "item_pricing_group": "IDS-4",
                "group_name": "IDS-4",
                "group_desc": "IDS-4"
            }, {
                "_id": "IDS-5",
                "_displayName": "IDS-5",
                "worksheet_type": "FLEXCON",
                "item_pricing_group": "IDS-5",
                "group_name": "IDS-5",
                "group_desc": "IDS-5"
            }, {
                "_id": "IDS-6",
                "_displayName": "IDS-6",
                "worksheet_type": "FLEXCON",
                "item_pricing_group": "IDS-6",
                "group_name": "IDS-6",
                "group_desc": "IDS-6"
            }, {
                "_id": "IDS-8",
                "_displayName": "IDS-8",
                "worksheet_type": "FLEXCON",
                "item_pricing_group": "IDS-8",
                "group_name": "IDS-8",
                "group_desc": "IDS-8"
            }, {
                "_id": "CUSTOM",
                "_displayName": "CUSTOM",
                "worksheet_type": "FLFL",
                "item_pricing_group": "CUSTOM",
                "group_name": "CUSTOM",
                "group_desc": "CUSTOM"
            }, {
                "_id": "FFFC1INST",
                "_displayName": "FFFC1INST",
                "worksheet_type": "FLFL",
                "item_pricing_group": "FFFC1INST",
                "group_name": "FFFC1INST",
                "group_desc": "FFFC1INST"
            }, {
                "_id": "FFFC2",
                "_displayName": "FFFC2",
                "worksheet_type": "FLFL",
                "item_pricing_group": "FFFC2",
                "group_name": "FFFC2",
                "group_desc": "FFFC2"
            }, {
                "_id": "FFFC2INST",
                "_displayName": "FFFC2INST",
                "worksheet_type": "FLFL",
                "item_pricing_group": "FFFC2INST",
                "group_name": "FFFC2INST",
                "group_desc": "FFFC2INST"
            }, {
                "_id": "FFPS2",
                "_displayName": "FFPS2",
                "worksheet_type": "FLFL",
                "item_pricing_group": "FFPS2",
                "group_name": "FFPS2",
                "group_desc": "FFPS2"
            }, {
                "_id": "FFPS2INST",
                "_displayName": "FFPS2INST",
                "worksheet_type": "FLFL",
                "item_pricing_group": "FFPS2INST",
                "group_name": "FFPS2INST",
                "group_desc": "FFPS2INST"
            }, {
                "_id": "FFPS3",
                "_displayName": "FFPS3",
                "worksheet_type": "FLFL",
                "item_pricing_group": "FFPS3",
                "group_name": "FFPS3",
                "group_desc": "FFPS3"
            }, {
                "_id": "FFPS3INST",
                "_displayName": "FFPS3INST",
                "worksheet_type": "FLFL",
                "item_pricing_group": "FFPS3INST",
                "group_name": "FFPS3INST",
                "group_desc": "FFPS3INST"
            }, {
                "_id": "FFPS4",
                "_displayName": "FFPS4",
                "worksheet_type": "FLFL",
                "item_pricing_group": "FFPS4",
                "group_name": "FFPS4",
                "group_desc": "FFPS4"
            }, {
                "_id": "FFPS4INST",
                "_displayName": "FFPS4INST",
                "worksheet_type": "FLFL",
                "item_pricing_group": "FFPS4INST",
                "group_name": "FFPS4INST",
                "group_desc": "FFPS4INST"
            }, {
                "_id": "CUSTOM",
                "_displayName": "CUSTOM",
                "worksheet_type": "RISER",
                "item_pricing_group": "CUSTOM",
                "group_name": "CUSTOM",
                "group_desc": "CUSTOM"
            }, {
                "_id": "ICFRS-2-100-4500",
                "_displayName": "ICFRS-2-100-4500",
                "worksheet_type": "RISER",
                "item_pricing_group": "ICFRS-2-100-4500",
                "group_name": "ICFRS-2-100-4500",
                "group_desc": "ICFRS-2-100-4500"
            }, {
                "_id": "ICFRS-3-100-4500",
                "_displayName": "ICFRS-3-100-4500",
                "worksheet_type": "RISER",
                "item_pricing_group": "ICFRS-3-100-4500",
                "group_name": "ICFRS-3-100-4500",
                "group_desc": "ICFRS-3-100-4500"
            }, {
                "_id": "ICSFRS-2-100-4500",
                "_displayName": "ICSFRS-2-100-4500",
                "worksheet_type": "RISER",
                "item_pricing_group": "ICSFRS-2-100-4500",
                "group_name": "ICSFRS-2-100-4500",
                "group_desc": "ICSFRS-2-100-4500"
            }, {
                "_id": "ICSFRS-3-100-4500",
                "_displayName": "ICSFRS-3-100-4500",
                "worksheet_type": "RISER",
                "item_pricing_group": "ICSFRS-3-100-4500",
                "group_name": "ICSFRS-3-100-4500",
                "group_desc": "ICSFRS-3-100-4500"
            }, {
                "_id": "IEJ-CS-1",
                "_displayName": "IEJ-CS-1",
                "worksheet_type": "RISER",
                "item_pricing_group": "IEJ-CS-1",
                "group_name": "IEJ-CS-1",
                "group_desc": "IEJ-CS-1"
            }, {
                "_id": "IEJ-CS-10",
                "_displayName": "IEJ-CS-10",
                "worksheet_type": "RISER",
                "item_pricing_group": "IEJ-CS-10",
                "group_name": "IEJ-CS-10",
                "group_desc": "IEJ-CS-10"
            }, {
                "_id": "IEJ-CS-12",
                "_displayName": "IEJ-CS-12",
                "worksheet_type": "RISER",
                "item_pricing_group": "IEJ-CS-12",
                "group_name": "IEJ-CS-12",
                "group_desc": "IEJ-CS-12"
            }, {
                "_id": "IEJ-CS-2",
                "_displayName": "IEJ-CS-2",
                "worksheet_type": "RISER",
                "item_pricing_group": "IEJ-CS-2",
                "group_name": "IEJ-CS-2",
                "group_desc": "IEJ-CS-2"
            }, {
                "_id": "IEJ-CS-2.5",
                "_displayName": "IEJ-CS-2.5",
                "worksheet_type": "RISER",
                "item_pricing_group": "IEJ-CS-2.5",
                "group_name": "IEJ-CS-2.5",
                "group_desc": "IEJ-CS-2.5"
            }, {
                "_id": "IEJ-CS-3",
                "_displayName": "IEJ-CS-3",
                "worksheet_type": "RISER",
                "item_pricing_group": "IEJ-CS-3",
                "group_name": "IEJ-CS-3",
                "group_desc": "IEJ-CS-3"
            }, {
                "_id": "IEJ-CS-4",
                "_displayName": "IEJ-CS-4",
                "worksheet_type": "RISER",
                "item_pricing_group": "IEJ-CS-4",
                "group_name": "IEJ-CS-4",
                "group_desc": "IEJ-CS-4"
            }, {
                "_id": "IEJ-CS-6",
                "_displayName": "IEJ-CS-6",
                "worksheet_type": "RISER",
                "item_pricing_group": "IEJ-CS-6",
                "group_name": "IEJ-CS-6",
                "group_desc": "IEJ-CS-6"
            }, {
                "_id": "IEJ-CS-8",
                "_displayName": "IEJ-CS-8",
                "worksheet_type": "RISER",
                "item_pricing_group": "IEJ-CS-8",
                "group_name": "IEJ-CS-8",
                "group_desc": "IEJ-CS-8"
            }, {
                "_id": "IEJ-SS-2.5",
                "_displayName": "IEJ-SS-2.5",
                "worksheet_type": "RISER",
                "item_pricing_group": "IEJ-SS-2.5",
                "group_name": "IEJ-SS-2.5",
                "group_desc": "IEJ-SS-2.5"
            }, {
                "_id": "IEJ-SS-3",
                "_displayName": "IEJ-SS-3",
                "worksheet_type": "RISER",
                "item_pricing_group": "IEJ-SS-3",
                "group_name": "IEJ-SS-3",
                "group_desc": "IEJ-SS-3"
            }, {
                "_id": "IEJ-SS-4",
                "_displayName": "IEJ-SS-4",
                "worksheet_type": "RISER",
                "item_pricing_group": "IEJ-SS-4",
                "group_name": "IEJ-SS-4",
                "group_desc": "IEJ-SS-4"
            }, {
                "_id": "IEJ-SS-6",
                "_displayName": "IEJ-SS-6",
                "worksheet_type": "RISER",
                "item_pricing_group": "IEJ-SS-6",
                "group_name": "IEJ-SS-6",
                "group_desc": "IEJ-SS-6"
            }, {
                "_id": "IEJ-SS-8",
                "_displayName": "IEJ-SS-8",
                "worksheet_type": "RISER",
                "item_pricing_group": "IEJ-SS-8",
                "group_name": "IEJ-SS-8",
                "group_desc": "IEJ-SS-8"
            }, {
                "_id": "IFHCP-1",
                "_displayName": "IFHCP-1",
                "worksheet_type": "RISER",
                "item_pricing_group": "IFHCP-1",
                "group_name": "IFHCP-1",
                "group_desc": "IFHCP-1"
            }, {
                "_id": "IFHCP-1.25",
                "_displayName": "IFHCP-1.25",
                "worksheet_type": "RISER",
                "item_pricing_group": "IFHCP-1.25",
                "group_name": "IFHCP-1.25",
                "group_desc": "IFHCP-1.25"
            }, {
                "_id": "IFHCP-1.5",
                "_displayName": "IFHCP-1.5",
                "worksheet_type": "RISER",
                "item_pricing_group": "IFHCP-1.5",
                "group_name": "IFHCP-1.5",
                "group_desc": "IFHCP-1.5"
            }, {
                "_id": "IFHCP-2",
                "_displayName": "IFHCP-2",
                "worksheet_type": "RISER",
                "item_pricing_group": "IFHCP-2",
                "group_name": "IFHCP-2",
                "group_desc": "IFHCP-2"
            }, {
                "_id": "IFHCP-2.5",
                "_displayName": "IFHCP-2.5",
                "worksheet_type": "RISER",
                "item_pricing_group": "IFHCP-2.5",
                "group_name": "IFHCP-2.5",
                "group_desc": "IFHCP-2.5"
            }, {
                "_id": "IFHCP-3",
                "_displayName": "IFHCP-3",
                "worksheet_type": "RISER",
                "item_pricing_group": "IFHCP-3",
                "group_name": "IFHCP-3",
                "group_desc": "IFHCP-3"
            }, {
                "_id": "IFHCP-4",
                "_displayName": "IFHCP-4",
                "worksheet_type": "RISER",
                "item_pricing_group": "IFHCP-4",
                "group_name": "IFHCP-4",
                "group_desc": "IFHCP-4"
            }, {
                "_id": "IFHCS-10",
                "_displayName": "IFHCS-10",
                "worksheet_type": "RISER",
                "item_pricing_group": "IFHCS-10",
                "group_name": "IFHCS-10",
                "group_desc": "IFHCS-10"
            }, {
                "_id": "IFHCS-12",
                "_displayName": "IFHCS-12",
                "worksheet_type": "RISER",
                "item_pricing_group": "IFHCS-12",
                "group_name": "IFHCS-12",
                "group_desc": "IFHCS-12"
            }, {
                "_id": "IFHCS-2.5",
                "_displayName": "IFHCS-2.5",
                "worksheet_type": "RISER",
                "item_pricing_group": "IFHCS-2.5",
                "group_name": "IFHCS-2.5",
                "group_desc": "IFHCS-2.5"
            }, {
                "_id": "IFHCS-3",
                "_displayName": "IFHCS-3",
                "worksheet_type": "RISER",
                "item_pricing_group": "IFHCS-3",
                "group_name": "IFHCS-3",
                "group_desc": "IFHCS-3"
            }, {
                "_id": "IFHCS-4",
                "_displayName": "IFHCS-4",
                "worksheet_type": "RISER",
                "item_pricing_group": "IFHCS-4",
                "group_name": "IFHCS-4",
                "group_desc": "IFHCS-4"
            }, {
                "_id": "IFHCS-5",
                "_displayName": "IFHCS-5",
                "worksheet_type": "RISER",
                "item_pricing_group": "IFHCS-5",
                "group_name": "IFHCS-5",
                "group_desc": "IFHCS-5"
            }, {
                "_id": "IFHCS-6",
                "_displayName": "IFHCS-6",
                "worksheet_type": "RISER",
                "item_pricing_group": "IFHCS-6",
                "group_name": "IFHCS-6",
                "group_desc": "IFHCS-6"
            }, {
                "_id": "IFHCS-8",
                "_displayName": "IFHCS-8",
                "worksheet_type": "RISER",
                "item_pricing_group": "IFHCS-8",
                "group_name": "IFHCS-8",
                "group_desc": "IFHCS-8"
            }, {
                "_id": "IFHSS-2.5",
                "_displayName": "IFHSS-2.5",
                "worksheet_type": "RISER",
                "item_pricing_group": "IFHSS-2.5",
                "group_name": "IFHSS-2.5",
                "group_desc": "IFHSS-2.5"
            }, {
                "_id": "IFHSS-3",
                "_displayName": "IFHSS-3",
                "worksheet_type": "RISER",
                "item_pricing_group": "IFHSS-3",
                "group_name": "IFHSS-3",
                "group_desc": "IFHSS-3"
            }, {
                "_id": "IFHSS-4",
                "_displayName": "IFHSS-4",
                "worksheet_type": "RISER",
                "item_pricing_group": "IFHSS-4",
                "group_name": "IFHSS-4",
                "group_desc": "IFHSS-4"
            }, {
                "_id": "IFHSS-5",
                "_displayName": "IFHSS-5",
                "worksheet_type": "RISER",
                "item_pricing_group": "IFHSS-5",
                "group_name": "IFHSS-5",
                "group_desc": "IFHSS-5"
            }, {
                "_id": "IFHSS-6",
                "_displayName": "IFHSS-6",
                "worksheet_type": "RISER",
                "item_pricing_group": "IFHSS-6",
                "group_name": "IFHSS-6",
                "group_desc": "IFHSS-6"
            }, {
                "_id": "IGR-38-63",
                "_displayName": "IGR-38-63",
                "worksheet_type": "RISER",
                "item_pricing_group": "IGR-38-63",
                "group_name": "IGR-38-63",
                "group_desc": "IGR-38-63"
            }, {
                "_id": "IPGC-100-300",
                "_displayName": "IPGC-100-300",
                "worksheet_type": "RISER",
                "item_pricing_group": "IPGC-100-300",
                "group_name": "IPGC-100-300",
                "group_desc": "IPGC-100-300"
            }, {
                "_id": "IPGR-10",
                "_displayName": "IPGR-10",
                "worksheet_type": "RISER",
                "item_pricing_group": "IPGR-10",
                "group_name": "IPGR-10",
                "group_desc": "IPGR-10"
            }, {
                "_id": "IPGR-2.5",
                "_displayName": "IPGR-2.5",
                "worksheet_type": "RISER",
                "item_pricing_group": "IPGR-2.5",
                "group_name": "IPGR-2.5",
                "group_desc": "IPGR-2.5"
            }, {
                "_id": "IPGR-3",
                "_displayName": "IPGR-3",
                "worksheet_type": "RISER",
                "item_pricing_group": "IPGR-3",
                "group_name": "IPGR-3",
                "group_desc": "IPGR-3"
            }, {
                "_id": "IPGR-4",
                "_displayName": "IPGR-4",
                "worksheet_type": "RISER",
                "item_pricing_group": "IPGR-4",
                "group_name": "IPGR-4",
                "group_desc": "IPGR-4"
            }, {
                "_id": "IPGR-6",
                "_displayName": "IPGR-6",
                "worksheet_type": "RISER",
                "item_pricing_group": "IPGR-6",
                "group_name": "IPGR-6",
                "group_desc": "IPGR-6"
            }, {
                "_id": "IPGR-8",
                "_displayName": "IPGR-8",
                "worksheet_type": "RISER",
                "item_pricing_group": "IPGR-8",
                "group_name": "IPGR-8",
                "group_desc": "IPGR-8"
            }, {
                "_id": "IRBH-1-60-1200",
                "_displayName": "IRBH-1-60-1200",
                "worksheet_type": "RISER",
                "item_pricing_group": "IRBH-1-60-1200",
                "group_name": "IRBH-1-60-1200",
                "group_desc": "IRBH-1-60-1200"
            }, {
                "_id": "IRBH-2-200-3000",
                "_displayName": "IRBH-2-200-3000",
                "worksheet_type": "RISER",
                "item_pricing_group": "IRBH-2-200-3000",
                "group_name": "IRBH-2-200-3000",
                "group_desc": "IRBH-2-200-3000"
            }, {
                "_id": "IUL-CP1.5-1",
                "_displayName": "IUL-CP1.5-1",
                "worksheet_type": "RISER",
                "item_pricing_group": "IUL-CP1.5-1",
                "group_name": "IUL-CP1.5-1",
                "group_desc": "IUL-CP1.5-1"
            }, {
                "_id": "IUL-CP1.5-1.25",
                "_displayName": "IUL-CP1.5-1.25",
                "worksheet_type": "RISER",
                "item_pricing_group": "IUL-CP1.5-1.25",
                "group_name": "IUL-CP1.5-1.25",
                "group_desc": "IUL-CP1.5-1.25"
            }, {
                "_id": "IUL-CP1.5-1.5",
                "_displayName": "IUL-CP1.5-1.5",
                "worksheet_type": "RISER",
                "item_pricing_group": "IUL-CP1.5-1.5",
                "group_name": "IUL-CP1.5-1.5",
                "group_desc": "IUL-CP1.5-1.5"
            }, {
                "_id": "IUL-CP1.5-2",
                "_displayName": "IUL-CP1.5-2",
                "worksheet_type": "RISER",
                "item_pricing_group": "IUL-CP1.5-2",
                "group_name": "IUL-CP1.5-2",
                "group_desc": "IUL-CP1.5-2"
            }, {
                "_id": "IUL-CP1.5-2.5",
                "_displayName": "IUL-CP1.5-2.5",
                "worksheet_type": "RISER",
                "item_pricing_group": "IUL-CP1.5-2.5",
                "group_name": "IUL-CP1.5-2.5",
                "group_desc": "IUL-CP1.5-2.5"
            }, {
                "_id": "IUL-CP1.5-3",
                "_displayName": "IUL-CP1.5-3",
                "worksheet_type": "RISER",
                "item_pricing_group": "IUL-CP1.5-3",
                "group_name": "IUL-CP1.5-3",
                "group_desc": "IUL-CP1.5-3"
            }, {
                "_id": "IUL-CP1.5-4",
                "_displayName": "IUL-CP1.5-4",
                "worksheet_type": "RISER",
                "item_pricing_group": "IUL-CP1.5-4",
                "group_name": "IUL-CP1.5-4",
                "group_desc": "IUL-CP1.5-4"
            }, {
                "_id": "IUL-CP4-1",
                "_displayName": "IUL-CP4-1",
                "worksheet_type": "RISER",
                "item_pricing_group": "IUL-CP4-1",
                "group_name": "IUL-CP4-1",
                "group_desc": "IUL-CP4-1"
            }, {
                "_id": "IUL-CP4-1.25",
                "_displayName": "IUL-CP4-1.25",
                "worksheet_type": "RISER",
                "item_pricing_group": "IUL-CP4-1.25",
                "group_name": "IUL-CP4-1.25",
                "group_desc": "IUL-CP4-1.25"
            }, {
                "_id": "IUL-CP4-1.5",
                "_displayName": "IUL-CP4-1.5",
                "worksheet_type": "RISER",
                "item_pricing_group": "IUL-CP4-1.5",
                "group_name": "IUL-CP4-1.5",
                "group_desc": "IUL-CP4-1.5"
            }, {
                "_id": "IUL-CP4-2",
                "_displayName": "IUL-CP4-2",
                "worksheet_type": "RISER",
                "item_pricing_group": "IUL-CP4-2",
                "group_name": "IUL-CP4-2",
                "group_desc": "IUL-CP4-2"
            }, {
                "_id": "IUL-CP4-2.5",
                "_displayName": "IUL-CP4-2.5",
                "worksheet_type": "RISER",
                "item_pricing_group": "IUL-CP4-2.5",
                "group_name": "IUL-CP4-2.5",
                "group_desc": "IUL-CP4-2.5"
            }, {
                "_id": "IUL-CP4-3",
                "_displayName": "IUL-CP4-3",
                "worksheet_type": "RISER",
                "item_pricing_group": "IUL-CP4-3",
                "group_name": "IUL-CP4-3",
                "group_desc": "IUL-CP4-3"
            }, {
                "_id": "IUL-CP4-4",
                "_displayName": "IUL-CP4-4",
                "worksheet_type": "RISER",
                "item_pricing_group": "IUL-CP4-4",
                "group_name": "IUL-CP4-4",
                "group_desc": "IUL-CP4-4"
            }, {
                "_id": "CUSTOM",
                "_displayName": "CUSTOM",
                "worksheet_type": "RISER_FCHP",
                "item_pricing_group": "CUSTOM",
                "group_name": "CUSTOM",
                "group_desc": "CUSTOM"
            }, {
                "_id": "IEJ-CP(FC/HP)-2",
                "_displayName": "IEJ-CP(FC/HP)-2",
                "worksheet_type": "RISER_FCHP",
                "item_pricing_group": "IEJ-CP(FC/HP)-2",
                "group_name": "IEJ-CP(FC/HP)-2",
                "group_desc": "IEJ-CP(FC/HP)-2"
            }, {
                "_id": "IEJ-CS(FC/HP)-2",
                "_displayName": "IEJ-CS(FC/HP)-2",
                "worksheet_type": "RISER_FCHP",
                "item_pricing_group": "IEJ-CS(FC/HP)-2",
                "group_name": "IEJ-CS(FC/HP)-2",
                "group_desc": "IEJ-CS(FC/HP)-2"
            }, {
                "_id": "IUL-CP1.5-2",
                "_displayName": "IUL-CP1.5-2",
                "worksheet_type": "RISER_FCHP",
                "item_pricing_group": "IUL-CP1.5-2",
                "group_name": "IUL-CP1.5-2",
                "group_desc": "IUL-CP1.5-2"
            }, {
                "_id": "IUL-CP4-2",
                "_displayName": "IUL-CP4-2",
                "worksheet_type": "RISER_FCHP",
                "item_pricing_group": "IUL-CP4-2",
                "group_name": "IUL-CP4-2",
                "group_desc": "IUL-CP4-2"
            }, {
                "_id": "CUSTOM",
                "_displayName": "CUSTOM",
                "worksheet_type": "VISO",
                "item_pricing_group": "CUSTOM",
                "group_name": "CUSTOM",
                "group_desc": "CUSTOM"
            }, {
                "_id": "ICCH-1-30-400",
                "_displayName": "ICCH-1-30-400",
                "worksheet_type": "VISO",
                "item_pricing_group": "ICCH-1-30-400",
                "group_name": "ICCH-1-30-400",
                "group_desc": "ICCH-1-30-400"
            }, {
                "_id": "ICIB NS",
                "_displayName": "ICIB NS",
                "worksheet_type": "VISO",
                "item_pricing_group": "ICIB NS",
                "group_name": "ICIB NS",
                "group_desc": "ICIB NS"
            }, {
                "_id": "ICSN-2-100-4500",
                "_displayName": "ICSN-2-100-4500",
                "worksheet_type": "VISO",
                "item_pricing_group": "ICSN-2-100-4500",
                "group_name": "ICSN-2-100-4500",
                "group_desc": "ICSN-2-100-4500"
            }, {
                "_id": "ICSN-2-5000-9000",
                "_displayName": "ICSN-2-5000-9000",
                "worksheet_type": "VISO",
                "item_pricing_group": "ICSN-2-5000-9000",
                "group_name": "ICSN-2-5000-9000",
                "group_desc": "ICSN-2-5000-9000"
            }, {
                "_id": "ICSN-2O-100-4500",
                "_displayName": "ICSN-2O-100-4500",
                "worksheet_type": "VISO",
                "item_pricing_group": "ICSN-2O-100-4500",
                "group_name": "ICSN-2O-100-4500",
                "group_desc": "ICSN-2O-100-4500"
            }, {
                "_id": "ICSN-2O-5000-9000",
                "_displayName": "ICSN-2O-5000-9000",
                "worksheet_type": "VISO",
                "item_pricing_group": "ICSN-2O-5000-9000",
                "group_name": "ICSN-2O-5000-9000",
                "group_desc": "ICSN-2O-5000-9000"
            }, {
                "_id": "ICSN-2OR2-100-4500",
                "_displayName": "ICSN-2OR2-100-4500",
                "worksheet_type": "VISO",
                "item_pricing_group": "ICSN-2OR2-100-4500",
                "group_name": "ICSN-2OR2-100-4500",
                "group_desc": "ICSN-2OR2-100-4500"
            }, {
                "_id": "ICSN-2OR2-5000-9000",
                "_displayName": "ICSN-2OR2-5000-9000",
                "worksheet_type": "VISO",
                "item_pricing_group": "ICSN-2OR2-5000-9000",
                "group_name": "ICSN-2OR2-5000-9000",
                "group_desc": "ICSN-2OR2-5000-9000"
            }, {
                "_id": "ICSN-2OR3-100-4500",
                "_displayName": "ICSN-2OR3-100-4500",
                "worksheet_type": "VISO",
                "item_pricing_group": "ICSN-2OR3-100-4500",
                "group_name": "ICSN-2OR3-100-4500",
                "group_desc": "ICSN-2OR3-100-4500"
            }, {
                "_id": "ICSN-2OR3-5000-9000",
                "_displayName": "ICSN-2OR3-5000-9000",
                "worksheet_type": "VISO",
                "item_pricing_group": "ICSN-2OR3-5000-9000",
                "group_name": "ICSN-2OR3-5000-9000",
                "group_desc": "ICSN-2OR3-5000-9000"
            }, {
                "_id": "ICSN-2OR4-100-4500",
                "_displayName": "ICSN-2OR4-100-4500",
                "worksheet_type": "VISO",
                "item_pricing_group": "ICSN-2OR4-100-4500",
                "group_name": "ICSN-2OR4-100-4500",
                "group_desc": "ICSN-2OR4-100-4500"
            }, {
                "_id": "ICSN-2OR4-5000-9000",
                "_displayName": "ICSN-2OR4-5000-9000",
                "worksheet_type": "VISO",
                "item_pricing_group": "ICSN-2OR4-5000-9000",
                "group_name": "ICSN-2OR4-5000-9000",
                "group_desc": "ICSN-2OR4-5000-9000"
            }, {
                "_id": "ICSN-2OR5-100-4500",
                "_displayName": "ICSN-2OR5-100-4500",
                "worksheet_type": "VISO",
                "item_pricing_group": "ICSN-2OR5-100-4500",
                "group_name": "ICSN-2OR5-100-4500",
                "group_desc": "ICSN-2OR5-100-4500"
            }, {
                "_id": "ICSN-2OR5-5000-9000",
                "_displayName": "ICSN-2OR5-5000-9000",
                "worksheet_type": "VISO",
                "item_pricing_group": "ICSN-2OR5-5000-9000",
                "group_name": "ICSN-2OR5-5000-9000",
                "group_desc": "ICSN-2OR5-5000-9000"
            }, {
                "_id": "ICSN-2R2-100-4500",
                "_displayName": "ICSN-2R2-100-4500",
                "worksheet_type": "VISO",
                "item_pricing_group": "ICSN-2R2-100-4500",
                "group_name": "ICSN-2R2-100-4500",
                "group_desc": "ICSN-2R2-100-4500"
            }, {
                "_id": "ICSN-2R2-5000-9000",
                "_displayName": "ICSN-2R2-5000-9000",
                "worksheet_type": "VISO",
                "item_pricing_group": "ICSN-2R2-5000-9000",
                "group_name": "ICSN-2R2-5000-9000",
                "group_desc": "ICSN-2R2-5000-9000"
            }, {
                "_id": "ICSN-2R3-100-4500",
                "_displayName": "ICSN-2R3-100-4500",
                "worksheet_type": "VISO",
                "item_pricing_group": "ICSN-2R3-100-4500",
                "group_name": "ICSN-2R3-100-4500",
                "group_desc": "ICSN-2R3-100-4500"
            }, {
                "_id": "ICSN-2R3-5000-9000",
                "_displayName": "ICSN-2R3-5000-9000",
                "worksheet_type": "VISO",
                "item_pricing_group": "ICSN-2R3-5000-9000",
                "group_name": "ICSN-2R3-5000-9000",
                "group_desc": "ICSN-2R3-5000-9000"
            }, {
                "_id": "ICSN-2R4-100-4500",
                "_displayName": "ICSN-2R4-100-4500",
                "worksheet_type": "VISO",
                "item_pricing_group": "ICSN-2R4-100-4500",
                "group_name": "ICSN-2R4-100-4500",
                "group_desc": "ICSN-2R4-100-4500"
            }, {
                "_id": "ICSN-2R4-5000-9000",
                "_displayName": "ICSN-2R4-5000-9000",
                "worksheet_type": "VISO",
                "item_pricing_group": "ICSN-2R4-5000-9000",
                "group_name": "ICSN-2R4-5000-9000",
                "group_desc": "ICSN-2R4-5000-9000"
            }, {
                "_id": "ICSN-2R5-100-4500",
                "_displayName": "ICSN-2R5-100-4500",
                "worksheet_type": "VISO",
                "item_pricing_group": "ICSN-2R5-100-4500",
                "group_name": "ICSN-2R5-100-4500",
                "group_desc": "ICSN-2R5-100-4500"
            }, {
                "_id": "ICSN-2R5-5000-9000",
                "_displayName": "ICSN-2R5-5000-9000",
                "worksheet_type": "VISO",
                "item_pricing_group": "ICSN-2R5-5000-9000",
                "group_name": "ICSN-2R5-5000-9000",
                "group_desc": "ICSN-2R5-5000-9000"
            }, {
                "_id": "ICSN-3-100-4500",
                "_displayName": "ICSN-3-100-4500",
                "worksheet_type": "VISO",
                "item_pricing_group": "ICSN-3-100-4500",
                "group_name": "ICSN-3-100-4500",
                "group_desc": "ICSN-3-100-4500"
            }, {
                "_id": "ICSN-3-5000-9000",
                "_displayName": "ICSN-3-5000-9000",
                "worksheet_type": "VISO",
                "item_pricing_group": "ICSN-3-5000-9000",
                "group_name": "ICSN-3-5000-9000",
                "group_desc": "ICSN-3-5000-9000"
            }, {
                "_id": "ICSN-3R2-100-4500",
                "_displayName": "ICSN-3R2-100-4500",
                "worksheet_type": "VISO",
                "item_pricing_group": "ICSN-3R2-100-4500",
                "group_name": "ICSN-3R2-100-4500",
                "group_desc": "ICSN-3R2-100-4500"
            }, {
                "_id": "ICSN-3R2-5000-9000",
                "_displayName": "ICSN-3R2-5000-9000",
                "worksheet_type": "VISO",
                "item_pricing_group": "ICSN-3R2-5000-9000",
                "group_name": "ICSN-3R2-5000-9000",
                "group_desc": "ICSN-3R2-5000-9000"
            }, {
                "_id": "ICSN-3R3-100-4500",
                "_displayName": "ICSN-3R3-100-4500",
                "worksheet_type": "VISO",
                "item_pricing_group": "ICSN-3R3-100-4500",
                "group_name": "ICSN-3R3-100-4500",
                "group_desc": "ICSN-3R3-100-4500"
            }, {
                "_id": "ICSN-3R3-5000-9000",
                "_displayName": "ICSN-3R3-5000-9000",
                "worksheet_type": "VISO",
                "item_pricing_group": "ICSN-3R3-5000-9000",
                "group_name": "ICSN-3R3-5000-9000",
                "group_desc": "ICSN-3R3-5000-9000"
            }, {
                "_id": "ICSN-3R4-100-4500",
                "_displayName": "ICSN-3R4-100-4500",
                "worksheet_type": "VISO",
                "item_pricing_group": "ICSN-3R4-100-4500",
                "group_name": "ICSN-3R4-100-4500",
                "group_desc": "ICSN-3R4-100-4500"
            }, {
                "_id": "ICSN-3R4-5000-9000",
                "_displayName": "ICSN-3R4-5000-9000",
                "worksheet_type": "VISO",
                "item_pricing_group": "ICSN-3R4-5000-9000",
                "group_name": "ICSN-3R4-5000-9000",
                "group_desc": "ICSN-3R4-5000-9000"
            }, {
                "_id": "ICSN-3R5-100-4500",
                "_displayName": "ICSN-3R5-100-4500",
                "worksheet_type": "VISO",
                "item_pricing_group": "ICSN-3R5-100-4500",
                "group_name": "ICSN-3R5-100-4500",
                "group_desc": "ICSN-3R5-100-4500"
            }, {
                "_id": "ICSN-3R5-5000-9000",
                "_displayName": "ICSN-3R5-5000-9000",
                "worksheet_type": "VISO",
                "item_pricing_group": "ICSN-3R5-5000-9000",
                "group_name": "ICSN-3R5-5000-9000",
                "group_desc": "ICSN-3R5-5000-9000"
            }, {
                "_id": "ICSS-3-100-4500",
                "_displayName": "ICSS-3-100-4500",
                "worksheet_type": "VISO",
                "item_pricing_group": "ICSS-3-100-4500",
                "group_name": "ICSS-3-100-4500",
                "group_desc": "ICSS-3-100-4500"
            }, {
                "_id": "ICSS-3-5000-9000",
                "_displayName": "ICSS-3-5000-9000",
                "worksheet_type": "VISO",
                "item_pricing_group": "ICSS-3-5000-9000",
                "group_name": "ICSS-3-5000-9000",
                "group_desc": "ICSS-3-5000-9000"
            }, {
                "_id": "IDR-A",
                "_displayName": "IDR-A",
                "worksheet_type": "VISO",
                "item_pricing_group": "IDR-A",
                "group_name": "IDR-A",
                "group_desc": "IDR-A"
            }, {
                "_id": "IGR-38-63",
                "_displayName": "IGR-38-63",
                "worksheet_type": "VISO",
                "item_pricing_group": "IGR-38-63",
                "group_name": "IGR-38-63",
                "group_desc": "IGR-38-63"
            }, {
                "_id": "IHA-1-30-600",
                "_displayName": "IHA-1-30-600",
                "worksheet_type": "VISO",
                "item_pricing_group": "IHA-1-30-600",
                "group_name": "IHA-1-30-600",
                "group_desc": "IHA-1-30-600"
            }, {
                "_id": "IHA-1D-30-600",
                "_displayName": "IHA-1D-30-600",
                "worksheet_type": "VISO",
                "item_pricing_group": "IHA-1D-30-600",
                "group_name": "IHA-1D-30-600",
                "group_desc": "IHA-1D-30-600"
            }, {
                "_id": "IHA-1DTE-30-600",
                "_displayName": "IHA-1DTE-30-600",
                "worksheet_type": "VISO",
                "item_pricing_group": "IHA-1DTE-30-600",
                "group_name": "IHA-1DTE-30-600",
                "group_desc": "IHA-1DTE-30-600"
            }, {
                "_id": "IHA-1DW-30-600",
                "_displayName": "IHA-1DW-30-600",
                "worksheet_type": "VISO",
                "item_pricing_group": "IHA-1DW-30-600",
                "group_name": "IHA-1DW-30-600",
                "group_desc": "IHA-1DW-30-600"
            }, {
                "_id": "IHA-1GBE-30-600",
                "_displayName": "IHA-1GBE-30-600",
                "worksheet_type": "VISO",
                "item_pricing_group": "IHA-1GBE-30-600",
                "group_name": "IHA-1GBE-30-600",
                "group_desc": "IHA-1GBE-30-600"
            }, {
                "_id": "IHA-1GBEW-30-600",
                "_displayName": "IHA-1GBEW-30-600",
                "worksheet_type": "VISO",
                "item_pricing_group": "IHA-1GBEW-30-600",
                "group_name": "IHA-1GBEW-30-600",
                "group_desc": "IHA-1GBEW-30-600"
            }, {
                "_id": "IHA-1GEE-30-600",
                "_displayName": "IHA-1GEE-30-600",
                "worksheet_type": "VISO",
                "item_pricing_group": "IHA-1GEE-30-600",
                "group_name": "IHA-1GEE-30-600",
                "group_desc": "IHA-1GEE-30-600"
            }, {
                "_id": "IHA-1GTE-30-600",
                "_displayName": "IHA-1GTE-30-600",
                "worksheet_type": "VISO",
                "item_pricing_group": "IHA-1GTE-30-600",
                "group_name": "IHA-1GTE-30-600",
                "group_desc": "IHA-1GTE-30-600"
            }, {
                "_id": "IHA-1W-30-600",
                "_displayName": "IHA-1W-30-600",
                "worksheet_type": "VISO",
                "item_pricing_group": "IHA-1W-30-600",
                "group_name": "IHA-1W-30-600",
                "group_desc": "IHA-1W-30-600"
            }, {
                "_id": "IHAC-1DW-30-600",
                "_displayName": "IHAC-1DW-30-600",
                "worksheet_type": "VISO",
                "item_pricing_group": "IHAC-1DW-30-600",
                "group_name": "IHAC-1DW-30-600",
                "group_desc": "IHAC-1DW-30-600"
            }, {
                "_id": "IHAC-1GBEW-30-600",
                "_displayName": "IHAC-1GBEW-30-600",
                "worksheet_type": "VISO",
                "item_pricing_group": "IHAC-1GBEW-30-600",
                "group_name": "IHAC-1GBEW-30-600",
                "group_desc": "IHAC-1GBEW-30-600"
            }, {
                "_id": "IHAC-1W-30-600",
                "_displayName": "IHAC-1W-30-600",
                "worksheet_type": "VISO",
                "item_pricing_group": "IHAC-1W-30-600",
                "group_name": "IHAC-1W-30-600",
                "group_desc": "IHAC-1W-30-600"
            }, {
                "_id": "IHACE-1-30-600",
                "_displayName": "IHACE-1-30-600",
                "worksheet_type": "VISO",
                "item_pricing_group": "IHACE-1-30-600",
                "group_name": "IHACE-1-30-600",
                "group_desc": "IHACE-1-30-600"
            }, {
                "_id": "IHACE-1D-30-600",
                "_displayName": "IHACE-1D-30-600",
                "worksheet_type": "VISO",
                "item_pricing_group": "IHACE-1D-30-600",
                "group_name": "IHACE-1D-30-600",
                "group_desc": "IHACE-1D-30-600"
            }, {
                "_id": "IHACE-1DTE-30-600",
                "_displayName": "IHACE-1DTE-30-600",
                "worksheet_type": "VISO",
                "item_pricing_group": "IHACE-1DTE-30-600",
                "group_name": "IHACE-1DTE-30-600",
                "group_desc": "IHACE-1DTE-30-600"
            }, {
                "_id": "IHACE-1GBE-30-600",
                "_displayName": "IHACE-1GBE-30-600",
                "worksheet_type": "VISO",
                "item_pricing_group": "IHACE-1GBE-30-600",
                "group_name": "IHACE-1GBE-30-600",
                "group_desc": "IHACE-1GBE-30-600"
            }, {
                "_id": "IHACE-1GEE-30-600",
                "_displayName": "IHACE-1GEE-30-600",
                "worksheet_type": "VISO",
                "item_pricing_group": "IHACE-1GEE-30-600",
                "group_name": "IHACE-1GEE-30-600",
                "group_desc": "IHACE-1GEE-30-600"
            }, {
                "_id": "IHACE-1GTE-30-600",
                "_displayName": "IHACE-1GTE-30-600",
                "worksheet_type": "VISO",
                "item_pricing_group": "IHACE-1GTE-30-600",
                "group_name": "IHACE-1GTE-30-600",
                "group_desc": "IHACE-1GTE-30-600"
            }, {
                "_id": "IHAE-1-30-600",
                "_displayName": "IHAE-1-30-600",
                "worksheet_type": "VISO",
                "item_pricing_group": "IHAE-1-30-600",
                "group_name": "IHAE-1-30-600",
                "group_desc": "IHAE-1-30-600"
            }, {
                "_id": "IHAE-1D-30-600",
                "_displayName": "IHAE-1D-30-600",
                "worksheet_type": "VISO",
                "item_pricing_group": "IHAE-1D-30-600",
                "group_name": "IHAE-1D-30-600",
                "group_desc": "IHAE-1D-30-600"
            }, {
                "_id": "IHAE-1DTE-30-600",
                "_displayName": "IHAE-1DTE-30-600",
                "worksheet_type": "VISO",
                "item_pricing_group": "IHAE-1DTE-30-600",
                "group_name": "IHAE-1DTE-30-600",
                "group_desc": "IHAE-1DTE-30-600"
            }, {
                "_id": "IHAE-1GBE-30-600",
                "_displayName": "IHAE-1GBE-30-600",
                "worksheet_type": "VISO",
                "item_pricing_group": "IHAE-1GBE-30-600",
                "group_name": "IHAE-1GBE-30-600",
                "group_desc": "IHAE-1GBE-30-600"
            }, {
                "_id": "IHAE-1GEE-30-600",
                "_displayName": "IHAE-1GEE-30-600",
                "worksheet_type": "VISO",
                "item_pricing_group": "IHAE-1GEE-30-600",
                "group_name": "IHAE-1GEE-30-600",
                "group_desc": "IHAE-1GEE-30-600"
            }, {
                "_id": "IHAE-1GTE-30-600",
                "_displayName": "IHAE-1GTE-30-600",
                "worksheet_type": "VISO",
                "item_pricing_group": "IHAE-1GTE-30-600",
                "group_name": "IHAE-1GTE-30-600",
                "group_desc": "IHAE-1GTE-30-600"
            }, {
                "_id": "IHB-2-100-1500",
                "_displayName": "IHB-2-100-1500",
                "worksheet_type": "VISO",
                "item_pricing_group": "IHB-2-100-1500",
                "group_name": "IHB-2-100-1500",
                "group_desc": "IHB-2-100-1500"
            }, {
                "_id": "IHBCE-2-100-1500",
                "_displayName": "IHBCE-2-100-1500",
                "worksheet_type": "VISO",
                "item_pricing_group": "IHBCE-2-100-1500",
                "group_name": "IHBCE-2-100-1500",
                "group_desc": "IHBCE-2-100-1500"
            }, {
                "_id": "IHBE-2-100-1500",
                "_displayName": "IHBE-2-100-1500",
                "worksheet_type": "VISO",
                "item_pricing_group": "IHBE-2-100-1500",
                "group_name": "IHBE-2-100-1500",
                "group_desc": "IHBE-2-100-1500"
            }, {
                "_id": "IHC-2-500-2500",
                "_displayName": "IHC-2-500-2500",
                "worksheet_type": "VISO",
                "item_pricing_group": "IHC-2-500-2500",
                "group_name": "IHC-2-500-2500",
                "group_desc": "IHC-2-500-2500"
            }, {
                "_id": "IHCCE-2-500-2500",
                "_displayName": "IHCCE-2-500-2500",
                "worksheet_type": "VISO",
                "item_pricing_group": "IHCCE-2-500-2500",
                "group_name": "IHCCE-2-500-2500",
                "group_desc": "IHCCE-2-500-2500"
            }, {
                "_id": "IHCE-2-500-2500 ",
                "_displayName": "IHCE-2-500-2500 ",
                "worksheet_type": "VISO",
                "item_pricing_group": "IHCE-2-500-2500 ",
                "group_name": "IHCE-2-500-2500 ",
                "group_desc": "IHCE-2-500-2500 "
            }, {
                "_id": "IHHD3-2000-4500",
                "_displayName": "IHHD3-2000-4500",
                "worksheet_type": "VISO",
                "item_pricing_group": "IHHD3-2000-4500",
                "group_name": "IHHD3-2000-4500",
                "group_desc": "IHHD3-2000-4500"
            }, {
                "_id": "IHND",
                "_displayName": "IHND",
                "worksheet_type": "VISO",
                "item_pricing_group": "IHND",
                "group_name": "IHND",
                "group_desc": "IHND"
            }, {
                "_id": "IHNS",
                "_displayName": "IHNS",
                "worksheet_type": "VISO",
                "item_pricing_group": "IHNS",
                "group_name": "IHNS",
                "group_desc": "IHNS"
            }, {
                "_id": "IHS-1-15-200",
                "_displayName": "IHS-1-15-200",
                "worksheet_type": "VISO",
                "item_pricing_group": "IHS-1-15-200",
                "group_name": "IHS-1-15-200",
                "group_desc": "IHS-1-15-200"
            }, {
                "_id": "IHS-1D-15-200",
                "_displayName": "IHS-1D-15-200",
                "worksheet_type": "VISO",
                "item_pricing_group": "IHS-1D-15-200",
                "group_name": "IHS-1D-15-200",
                "group_desc": "IHS-1D-15-200"
            }, {
                "_id": "IHS-1DTE-15-200",
                "_displayName": "IHS-1DTE-15-200",
                "worksheet_type": "VISO",
                "item_pricing_group": "IHS-1DTE-15-200",
                "group_name": "IHS-1DTE-15-200",
                "group_desc": "IHS-1DTE-15-200"
            }, {
                "_id": "IHS-1DW-15-200",
                "_displayName": "IHS-1DW-15-200",
                "worksheet_type": "VISO",
                "item_pricing_group": "IHS-1DW-15-200",
                "group_name": "IHS-1DW-15-200",
                "group_desc": "IHS-1DW-15-200"
            }, {
                "_id": "IHS-1GBE-15-200",
                "_displayName": "IHS-1GBE-15-200",
                "worksheet_type": "VISO",
                "item_pricing_group": "IHS-1GBE-15-200",
                "group_name": "IHS-1GBE-15-200",
                "group_desc": "IHS-1GBE-15-200"
            }, {
                "_id": "IHS-1GBEW-15-200",
                "_displayName": "IHS-1GBEW-15-200",
                "worksheet_type": "VISO",
                "item_pricing_group": "IHS-1GBEW-15-200",
                "group_name": "IHS-1GBEW-15-200",
                "group_desc": "IHS-1GBEW-15-200"
            }, {
                "_id": "IHS-1GEE-15-200",
                "_displayName": "IHS-1GEE-15-200",
                "worksheet_type": "VISO",
                "item_pricing_group": "IHS-1GEE-15-200",
                "group_name": "IHS-1GEE-15-200",
                "group_desc": "IHS-1GEE-15-200"
            }, {
                "_id": "IHS-1GTE-15-200",
                "_displayName": "IHS-1GTE-15-200",
                "worksheet_type": "VISO",
                "item_pricing_group": "IHS-1GTE-15-200",
                "group_name": "IHS-1GTE-15-200",
                "group_desc": "IHS-1GTE-15-200"
            }, {
                "_id": "IHS-1W-15-200",
                "_displayName": "IHS-1W-15-200",
                "worksheet_type": "VISO",
                "item_pricing_group": "IHS-1W-15-200",
                "group_name": "IHS-1W-15-200",
                "group_desc": "IHS-1W-15-200"
            }, {
                "_id": "IHSC-1DW-15-200",
                "_displayName": "IHSC-1DW-15-200",
                "worksheet_type": "VISO",
                "item_pricing_group": "IHSC-1DW-15-200",
                "group_name": "IHSC-1DW-15-200",
                "group_desc": "IHSC-1DW-15-200"
            }, {
                "_id": "IHSC-1GBEW-15-200",
                "_displayName": "IHSC-1GBEW-15-200",
                "worksheet_type": "VISO",
                "item_pricing_group": "IHSC-1GBEW-15-200",
                "group_name": "IHSC-1GBEW-15-200",
                "group_desc": "IHSC-1GBEW-15-200"
            }, {
                "_id": "IHSC-1W-15-200",
                "_displayName": "IHSC-1W-15-200",
                "worksheet_type": "VISO",
                "item_pricing_group": "IHSC-1W-15-200",
                "group_name": "IHSC-1W-15-200",
                "group_desc": "IHSC-1W-15-200"
            }, {
                "_id": "IHSCE-1-15-200",
                "_displayName": "IHSCE-1-15-200",
                "worksheet_type": "VISO",
                "item_pricing_group": "IHSCE-1-15-200",
                "group_name": "IHSCE-1-15-200",
                "group_desc": "IHSCE-1-15-200"
            }, {
                "_id": "IHSCE-1D-15-200",
                "_displayName": "IHSCE-1D-15-200",
                "worksheet_type": "VISO",
                "item_pricing_group": "IHSCE-1D-15-200",
                "group_name": "IHSCE-1D-15-200",
                "group_desc": "IHSCE-1D-15-200"
            }, {
                "_id": "IHSCE-1DTE-15-200",
                "_displayName": "IHSCE-1DTE-15-200",
                "worksheet_type": "VISO",
                "item_pricing_group": "IHSCE-1DTE-15-200",
                "group_name": "IHSCE-1DTE-15-200",
                "group_desc": "IHSCE-1DTE-15-200"
            }, {
                "_id": "IHSCE-1GBE-15-200",
                "_displayName": "IHSCE-1GBE-15-200",
                "worksheet_type": "VISO",
                "item_pricing_group": "IHSCE-1GBE-15-200",
                "group_name": "IHSCE-1GBE-15-200",
                "group_desc": "IHSCE-1GBE-15-200"
            }, {
                "_id": "IHSCE-1GEE-15-200",
                "_displayName": "IHSCE-1GEE-15-200",
                "worksheet_type": "VISO",
                "item_pricing_group": "IHSCE-1GEE-15-200",
                "group_name": "IHSCE-1GEE-15-200",
                "group_desc": "IHSCE-1GEE-15-200"
            }, {
                "_id": "IHSCE-1GTE-15-200",
                "_displayName": "IHSCE-1GTE-15-200",
                "worksheet_type": "VISO",
                "item_pricing_group": "IHSCE-1GTE-15-200",
                "group_name": "IHSCE-1GTE-15-200",
                "group_desc": "IHSCE-1GTE-15-200"
            }, {
                "_id": "IHSE-1-15-200",
                "_displayName": "IHSE-1-15-200",
                "worksheet_type": "VISO",
                "item_pricing_group": "IHSE-1-15-200",
                "group_name": "IHSE-1-15-200",
                "group_desc": "IHSE-1-15-200"
            }, {
                "_id": "IHSE-1D-15-200",
                "_displayName": "IHSE-1D-15-200",
                "worksheet_type": "VISO",
                "item_pricing_group": "IHSE-1D-15-200",
                "group_name": "IHSE-1D-15-200",
                "group_desc": "IHSE-1D-15-200"
            }, {
                "_id": "IHSE-1DTE-15-200",
                "_displayName": "IHSE-1DTE-15-200",
                "worksheet_type": "VISO",
                "item_pricing_group": "IHSE-1DTE-15-200",
                "group_name": "IHSE-1DTE-15-200",
                "group_desc": "IHSE-1DTE-15-200"
            }, {
                "_id": "IHSE-1GBE-15-200",
                "_displayName": "IHSE-1GBE-15-200",
                "worksheet_type": "VISO",
                "item_pricing_group": "IHSE-1GBE-15-200",
                "group_name": "IHSE-1GBE-15-200",
                "group_desc": "IHSE-1GBE-15-200"
            }, {
                "_id": "IHSE-1GEE-15-200",
                "_displayName": "IHSE-1GEE-15-200",
                "worksheet_type": "VISO",
                "item_pricing_group": "IHSE-1GEE-15-200",
                "group_name": "IHSE-1GEE-15-200",
                "group_desc": "IHSE-1GEE-15-200"
            }, {
                "_id": "IHSE-1GTE-15-200",
                "_displayName": "IHSE-1GTE-15-200",
                "worksheet_type": "VISO",
                "item_pricing_group": "IHSE-1GTE-15-200",
                "group_name": "IHSE-1GTE-15-200",
                "group_desc": "IHSE-1GTE-15-200"
            }, {
                "_id": "IHSSA-1-30-600",
                "_displayName": "IHSSA-1-30-600",
                "worksheet_type": "VISO",
                "item_pricing_group": "IHSSA-1-30-600",
                "group_name": "IHSSA-1-30-600",
                "group_desc": "IHSSA-1-30-600"
            }, {
                "_id": "IOSA-1-30-600",
                "_displayName": "IOSA-1-30-600",
                "worksheet_type": "VISO",
                "item_pricing_group": "IOSA-1-30-600",
                "group_name": "IOSA-1-30-600",
                "group_desc": "IOSA-1-30-600"
            }, {
                "_id": "IOSA-2-100-800",
                "_displayName": "IOSA-2-100-800",
                "worksheet_type": "VISO",
                "item_pricing_group": "IOSA-2-100-800",
                "group_name": "IOSA-2-100-800",
                "group_desc": "IOSA-2-100-800"
            }, {
                "_id": "IOSB-2-100-4500",
                "_displayName": "IOSB-2-100-4500",
                "worksheet_type": "VISO",
                "item_pricing_group": "IOSB-2-100-4500",
                "group_name": "IOSB-2-100-4500",
                "group_desc": "IOSB-2-100-4500"
            }, {
                "_id": "IPH-1.5-10",
                "_displayName": "IPH-1.5-10",
                "worksheet_type": "VISO",
                "item_pricing_group": "IPH-1.5-10",
                "group_name": "IPH-1.5-10",
                "group_desc": "IPH-1.5-10"
            }, {
                "_id": "IPS-1.5-10",
                "_displayName": "IPS-1.5-10",
                "worksheet_type": "VISO",
                "item_pricing_group": "IPS-1.5-10",
                "group_name": "IPS-1.5-10",
                "group_desc": "IPS-1.5-10"
            }, {
                "_id": "IPSSA-1-30-600",
                "_displayName": "IPSSA-1-30-600",
                "worksheet_type": "VISO",
                "item_pricing_group": "IPSSA-1-30-600",
                "group_name": "IPSSA-1-30-600",
                "group_desc": "IPSSA-1-30-600"
            }, {
                "_id": "IPSSA-2-100-1500",
                "_displayName": "IPSSA-2-100-1500",
                "worksheet_type": "VISO",
                "item_pricing_group": "IPSSA-2-100-1500",
                "group_name": "IPSSA-2-100-1500",
                "group_desc": "IPSSA-2-100-1500"
            }, {
                "_id": "IPSSA-2H-100-4500",
                "_displayName": "IPSSA-2H-100-4500",
                "worksheet_type": "VISO",
                "item_pricing_group": "IPSSA-2H-100-4500",
                "group_name": "IPSSA-2H-100-4500",
                "group_desc": "IPSSA-2H-100-4500"
            }, {
                "_id": "IRES-3-6",
                "_displayName": "IRES-3-6",
                "worksheet_type": "VISO",
                "item_pricing_group": "IRES-3-6",
                "group_name": "IRES-3-6",
                "group_desc": "IRES-3-6"
            }, {
                "_id": "IRESM-3-6",
                "_displayName": "IRESM-3-6",
                "worksheet_type": "VISO",
                "item_pricing_group": "IRESM-3-6",
                "group_name": "IRESM-3-6",
                "group_desc": "IRESM-3-6"
            }, {
                "_id": "IRMR-2-18",
                "_displayName": "IRMR-2-18",
                "worksheet_type": "VISO",
                "item_pricing_group": "IRMR-2-18",
                "group_name": "IRMR-2-18",
                "group_desc": "IRMR-2-18"
            }, {
                "_id": "IRMRM-2-18",
                "_displayName": "IRMRM-2-18",
                "worksheet_type": "VISO",
                "item_pricing_group": "IRMRM-2-18",
                "group_name": "IRMRM-2-18",
                "group_desc": "IRMRM-2-18"
            }, {
                "_id": "ISOSEP Roll",
                "_displayName": "ISOSEP Roll",
                "worksheet_type": "VISO",
                "item_pricing_group": "ISOSEP Roll",
                "group_name": "ISOSEP Roll",
                "group_desc": "ISOSEP Roll"
            }, {
                "_id": "Pier ISOSEP",
                "_displayName": "Pier ISOSEP",
                "worksheet_type": "VISO",
                "item_pricing_group": "Pier ISOSEP",
                "group_name": "Pier ISOSEP",
                "group_desc": "Pier ISOSEP"
            }, {
                "_id": "CUSTOM",
                "_displayName": "CUSTOM",
                "worksheet_type": "VISO_SW",
                "item_pricing_group": "CUSTOM",
                "group_name": "CUSTOM",
                "group_desc": "CUSTOM"
            }, {
                "_id": "ICIB S",
                "_displayName": "ICIB S",
                "worksheet_type": "VISO_SW",
                "item_pricing_group": "ICIB S",
                "group_name": "ICIB S",
                "group_desc": "ICIB S"
            }, {
                "_id": "ICRP-1.5-2",
                "_displayName": "ICRP-1.5-2",
                "worksheet_type": "VISO_SW",
                "item_pricing_group": "ICRP-1.5-2",
                "group_name": "ICRP-1.5-2",
                "group_desc": "ICRP-1.5-2"
            }, {
                "_id": "ICRP-12-14",
                "_displayName": "ICRP-12-14",
                "worksheet_type": "VISO_SW",
                "item_pricing_group": "ICRP-12-14",
                "group_name": "ICRP-12-14",
                "group_desc": "ICRP-12-14"
            }, {
                "_id": "ICRP-2.5-3",
                "_displayName": "ICRP-2.5-3",
                "worksheet_type": "VISO_SW",
                "item_pricing_group": "ICRP-2.5-3",
                "group_name": "ICRP-2.5-3",
                "group_desc": "ICRP-2.5-3"
            }, {
                "_id": "ICRP-4-6",
                "_displayName": "ICRP-4-6",
                "worksheet_type": "VISO_SW",
                "item_pricing_group": "ICRP-4-6",
                "group_name": "ICRP-4-6",
                "group_desc": "ICRP-4-6"
            }, {
                "_id": "ICRP-8-10",
                "_displayName": "ICRP-8-10",
                "worksheet_type": "VISO_SW",
                "item_pricing_group": "ICRP-8-10",
                "group_name": "ICRP-8-10",
                "group_desc": "ICRP-8-10"
            }, {
                "_id": "ICSS-2-100-4500",
                "_displayName": "ICSS-2-100-4500",
                "worksheet_type": "VISO_SW",
                "item_pricing_group": "ICSS-2-100-4500",
                "group_name": "ICSS-2-100-4500",
                "group_desc": "ICSS-2-100-4500"
            }, {
                "_id": "ICSS-2-5000-9000",
                "_displayName": "ICSS-2-5000-9000",
                "worksheet_type": "VISO_SW",
                "item_pricing_group": "ICSS-2-5000-9000",
                "group_name": "ICSS-2-5000-9000",
                "group_desc": "ICSS-2-5000-9000"
            }, {
                "_id": "ICSS-3-100-4500",
                "_displayName": "ICSS-3-100-4500",
                "worksheet_type": "VISO_SW",
                "item_pricing_group": "ICSS-3-100-4500",
                "group_name": "ICSS-3-100-4500",
                "group_desc": "ICSS-3-100-4500"
            }, {
                "_id": "ICSS-3-5000-9000",
                "_displayName": "ICSS-3-5000-9000",
                "worksheet_type": "VISO_SW",
                "item_pricing_group": "ICSS-3-5000-9000",
                "group_name": "ICSS-3-5000-9000",
                "group_desc": "ICSS-3-5000-9000"
            }, {
                "_id": "ICSSC-2-100-4500",
                "_displayName": "ICSSC-2-100-4500",
                "worksheet_type": "VISO_SW",
                "item_pricing_group": "ICSSC-2-100-4500",
                "group_name": "ICSSC-2-100-4500",
                "group_desc": "ICSSC-2-100-4500"
            }, {
                "_id": "IGR-38-63",
                "_displayName": "IGR-38-63",
                "worksheet_type": "VISO_SW",
                "item_pricing_group": "IGR-38-63",
                "group_name": "IGR-38-63",
                "group_desc": "IGR-38-63"
            }, {
                "_id": "IHA-1-30-600",
                "_displayName": "IHA-1-30-600",
                "worksheet_type": "VISO_SW",
                "item_pricing_group": "IHA-1-30-600",
                "group_name": "IHA-1-30-600",
                "group_desc": "IHA-1-30-600"
            }, {
                "_id": "IHA-1D-30-600",
                "_displayName": "IHA-1D-30-600",
                "worksheet_type": "VISO_SW",
                "item_pricing_group": "IHA-1D-30-600",
                "group_name": "IHA-1D-30-600",
                "group_desc": "IHA-1D-30-600"
            }, {
                "_id": "IHA-1DTE-30-600",
                "_displayName": "IHA-1DTE-30-600",
                "worksheet_type": "VISO_SW",
                "item_pricing_group": "IHA-1DTE-30-600",
                "group_name": "IHA-1DTE-30-600",
                "group_desc": "IHA-1DTE-30-600"
            }, {
                "_id": "IHA-1DW-30-600",
                "_displayName": "IHA-1DW-30-600",
                "worksheet_type": "VISO_SW",
                "item_pricing_group": "IHA-1DW-30-600",
                "group_name": "IHA-1DW-30-600",
                "group_desc": "IHA-1DW-30-600"
            }, {
                "_id": "IHA-1GBE-30-600",
                "_displayName": "IHA-1GBE-30-600",
                "worksheet_type": "VISO_SW",
                "item_pricing_group": "IHA-1GBE-30-600",
                "group_name": "IHA-1GBE-30-600",
                "group_desc": "IHA-1GBE-30-600"
            }, {
                "_id": "IHA-1GBEW-30-600",
                "_displayName": "IHA-1GBEW-30-600",
                "worksheet_type": "VISO_SW",
                "item_pricing_group": "IHA-1GBEW-30-600",
                "group_name": "IHA-1GBEW-30-600",
                "group_desc": "IHA-1GBEW-30-600"
            }, {
                "_id": "IHA-1GEE-30-600",
                "_displayName": "IHA-1GEE-30-600",
                "worksheet_type": "VISO_SW",
                "item_pricing_group": "IHA-1GEE-30-600",
                "group_name": "IHA-1GEE-30-600",
                "group_desc": "IHA-1GEE-30-600"
            }, {
                "_id": "IHA-1GTE-30-600",
                "_displayName": "IHA-1GTE-30-600",
                "worksheet_type": "VISO_SW",
                "item_pricing_group": "IHA-1GTE-30-600",
                "group_name": "IHA-1GTE-30-600",
                "group_desc": "IHA-1GTE-30-600"
            }, {
                "_id": "IHA-1W-30-600",
                "_displayName": "IHA-1W-30-600",
                "worksheet_type": "VISO_SW",
                "item_pricing_group": "IHA-1W-30-600",
                "group_name": "IHA-1W-30-600",
                "group_desc": "IHA-1W-30-600"
            }, {
                "_id": "IHAC-1DW-30-600",
                "_displayName": "IHAC-1DW-30-600",
                "worksheet_type": "VISO_SW",
                "item_pricing_group": "IHAC-1DW-30-600",
                "group_name": "IHAC-1DW-30-600",
                "group_desc": "IHAC-1DW-30-600"
            }, {
                "_id": "IHAC-1GBEW-30-600",
                "_displayName": "IHAC-1GBEW-30-600",
                "worksheet_type": "VISO_SW",
                "item_pricing_group": "IHAC-1GBEW-30-600",
                "group_name": "IHAC-1GBEW-30-600",
                "group_desc": "IHAC-1GBEW-30-600"
            }, {
                "_id": "IHAC-1W-30-600",
                "_displayName": "IHAC-1W-30-600",
                "worksheet_type": "VISO_SW",
                "item_pricing_group": "IHAC-1W-30-600",
                "group_name": "IHAC-1W-30-600",
                "group_desc": "IHAC-1W-30-600"
            }, {
                "_id": "IHACE-1-30-600",
                "_displayName": "IHACE-1-30-600",
                "worksheet_type": "VISO_SW",
                "item_pricing_group": "IHACE-1-30-600",
                "group_name": "IHACE-1-30-600",
                "group_desc": "IHACE-1-30-600"
            }, {
                "_id": "IHACE-1D-30-600",
                "_displayName": "IHACE-1D-30-600",
                "worksheet_type": "VISO_SW",
                "item_pricing_group": "IHACE-1D-30-600",
                "group_name": "IHACE-1D-30-600",
                "group_desc": "IHACE-1D-30-600"
            }, {
                "_id": "IHACE-1DTE-30-600",
                "_displayName": "IHACE-1DTE-30-600",
                "worksheet_type": "VISO_SW",
                "item_pricing_group": "IHACE-1DTE-30-600",
                "group_name": "IHACE-1DTE-30-600",
                "group_desc": "IHACE-1DTE-30-600"
            }, {
                "_id": "IHACE-1GBE-30-600",
                "_displayName": "IHACE-1GBE-30-600",
                "worksheet_type": "VISO_SW",
                "item_pricing_group": "IHACE-1GBE-30-600",
                "group_name": "IHACE-1GBE-30-600",
                "group_desc": "IHACE-1GBE-30-600"
            }, {
                "_id": "IHACE-1GEE-30-600",
                "_displayName": "IHACE-1GEE-30-600",
                "worksheet_type": "VISO_SW",
                "item_pricing_group": "IHACE-1GEE-30-600",
                "group_name": "IHACE-1GEE-30-600",
                "group_desc": "IHACE-1GEE-30-600"
            }, {
                "_id": "IHACE-1GTE-30-600",
                "_displayName": "IHACE-1GTE-30-600",
                "worksheet_type": "VISO_SW",
                "item_pricing_group": "IHACE-1GTE-30-600",
                "group_name": "IHACE-1GTE-30-600",
                "group_desc": "IHACE-1GTE-30-600"
            }, {
                "_id": "IHAE-1-30-600",
                "_displayName": "IHAE-1-30-600",
                "worksheet_type": "VISO_SW",
                "item_pricing_group": "IHAE-1-30-600",
                "group_name": "IHAE-1-30-600",
                "group_desc": "IHAE-1-30-600"
            }, {
                "_id": "IHAE-1D-30-600",
                "_displayName": "IHAE-1D-30-600",
                "worksheet_type": "VISO_SW",
                "item_pricing_group": "IHAE-1D-30-600",
                "group_name": "IHAE-1D-30-600",
                "group_desc": "IHAE-1D-30-600"
            }, {
                "_id": "IHAE-1DTE-30-600",
                "_displayName": "IHAE-1DTE-30-600",
                "worksheet_type": "VISO_SW",
                "item_pricing_group": "IHAE-1DTE-30-600",
                "group_name": "IHAE-1DTE-30-600",
                "group_desc": "IHAE-1DTE-30-600"
            }, {
                "_id": "IHAE-1GBE-30-600",
                "_displayName": "IHAE-1GBE-30-600",
                "worksheet_type": "VISO_SW",
                "item_pricing_group": "IHAE-1GBE-30-600",
                "group_name": "IHAE-1GBE-30-600",
                "group_desc": "IHAE-1GBE-30-600"
            }, {
                "_id": "IHAE-1GEE-30-600",
                "_displayName": "IHAE-1GEE-30-600",
                "worksheet_type": "VISO_SW",
                "item_pricing_group": "IHAE-1GEE-30-600",
                "group_name": "IHAE-1GEE-30-600",
                "group_desc": "IHAE-1GEE-30-600"
            }, {
                "_id": "IHAE-1GTE-30-600",
                "_displayName": "IHAE-1GTE-30-600",
                "worksheet_type": "VISO_SW",
                "item_pricing_group": "IHAE-1GTE-30-600",
                "group_name": "IHAE-1GTE-30-600",
                "group_desc": "IHAE-1GTE-30-600"
            }, {
                "_id": "IHB-2-100-1500",
                "_displayName": "IHB-2-100-1500",
                "worksheet_type": "VISO_SW",
                "item_pricing_group": "IHB-2-100-1500",
                "group_name": "IHB-2-100-1500",
                "group_desc": "IHB-2-100-1500"
            }, {
                "_id": "IHBCE-2-100-1500",
                "_displayName": "IHBCE-2-100-1500",
                "worksheet_type": "VISO_SW",
                "item_pricing_group": "IHBCE-2-100-1500",
                "group_name": "IHBCE-2-100-1500",
                "group_desc": "IHBCE-2-100-1500"
            }, {
                "_id": "IHBE-2-100-1500",
                "_displayName": "IHBE-2-100-1500",
                "worksheet_type": "VISO_SW",
                "item_pricing_group": "IHBE-2-100-1500",
                "group_name": "IHBE-2-100-1500",
                "group_desc": "IHBE-2-100-1500"
            }, {
                "_id": "IHC-2-500-2500",
                "_displayName": "IHC-2-500-2500",
                "worksheet_type": "VISO_SW",
                "item_pricing_group": "IHC-2-500-2500",
                "group_name": "IHC-2-500-2500",
                "group_desc": "IHC-2-500-2500"
            }, {
                "_id": "IHCCE-2-500-2500",
                "_displayName": "IHCCE-2-500-2500",
                "worksheet_type": "VISO_SW",
                "item_pricing_group": "IHCCE-2-500-2500",
                "group_name": "IHCCE-2-500-2500",
                "group_desc": "IHCCE-2-500-2500"
            }, {
                "_id": "IHCE-2-500-2500 ",
                "_displayName": "IHCE-2-500-2500 ",
                "worksheet_type": "VISO_SW",
                "item_pricing_group": "IHCE-2-500-2500 ",
                "group_name": "IHCE-2-500-2500 ",
                "group_desc": "IHCE-2-500-2500 "
            }, {
                "_id": "IHHD3-2000-4500",
                "_displayName": "IHHD3-2000-4500",
                "worksheet_type": "VISO_SW",
                "item_pricing_group": "IHHD3-2000-4500",
                "group_name": "IHHD3-2000-4500",
                "group_desc": "IHHD3-2000-4500"
            }, {
                "_id": "IHND",
                "_displayName": "IHND",
                "worksheet_type": "VISO_SW",
                "item_pricing_group": "IHND",
                "group_name": "IHND",
                "group_desc": "IHND"
            }, {
                "_id": "IHNS",
                "_displayName": "IHNS",
                "worksheet_type": "VISO_SW",
                "item_pricing_group": "IHNS",
                "group_name": "IHNS",
                "group_desc": "IHNS"
            }, {
                "_id": "IHS-1-15-200",
                "_displayName": "IHS-1-15-200",
                "worksheet_type": "VISO_SW",
                "item_pricing_group": "IHS-1-15-200",
                "group_name": "IHS-1-15-200",
                "group_desc": "IHS-1-15-200"
            }, {
                "_id": "IHS-1D-15-200",
                "_displayName": "IHS-1D-15-200",
                "worksheet_type": "VISO_SW",
                "item_pricing_group": "IHS-1D-15-200",
                "group_name": "IHS-1D-15-200",
                "group_desc": "IHS-1D-15-200"
            }, {
                "_id": "IHS-1DTE-15-200",
                "_displayName": "IHS-1DTE-15-200",
                "worksheet_type": "VISO_SW",
                "item_pricing_group": "IHS-1DTE-15-200",
                "group_name": "IHS-1DTE-15-200",
                "group_desc": "IHS-1DTE-15-200"
            }, {
                "_id": "IHS-1DW-15-200",
                "_displayName": "IHS-1DW-15-200",
                "worksheet_type": "VISO_SW",
                "item_pricing_group": "IHS-1DW-15-200",
                "group_name": "IHS-1DW-15-200",
                "group_desc": "IHS-1DW-15-200"
            }, {
                "_id": "IHS-1GBE-15-200",
                "_displayName": "IHS-1GBE-15-200",
                "worksheet_type": "VISO_SW",
                "item_pricing_group": "IHS-1GBE-15-200",
                "group_name": "IHS-1GBE-15-200",
                "group_desc": "IHS-1GBE-15-200"
            }, {
                "_id": "IHS-1GBEW-15-200",
                "_displayName": "IHS-1GBEW-15-200",
                "worksheet_type": "VISO_SW",
                "item_pricing_group": "IHS-1GBEW-15-200",
                "group_name": "IHS-1GBEW-15-200",
                "group_desc": "IHS-1GBEW-15-200"
            }, {
                "_id": "IHS-1GEE-15-200",
                "_displayName": "IHS-1GEE-15-200",
                "worksheet_type": "VISO_SW",
                "item_pricing_group": "IHS-1GEE-15-200",
                "group_name": "IHS-1GEE-15-200",
                "group_desc": "IHS-1GEE-15-200"
            }, {
                "_id": "IHS-1GTE-15-200",
                "_displayName": "IHS-1GTE-15-200",
                "worksheet_type": "VISO_SW",
                "item_pricing_group": "IHS-1GTE-15-200",
                "group_name": "IHS-1GTE-15-200",
                "group_desc": "IHS-1GTE-15-200"
            }, {
                "_id": "IHS-1W-15-200",
                "_displayName": "IHS-1W-15-200",
                "worksheet_type": "VISO_SW",
                "item_pricing_group": "IHS-1W-15-200",
                "group_name": "IHS-1W-15-200",
                "group_desc": "IHS-1W-15-200"
            }, {
                "_id": "IHSC-1DW-15-200",
                "_displayName": "IHSC-1DW-15-200",
                "worksheet_type": "VISO_SW",
                "item_pricing_group": "IHSC-1DW-15-200",
                "group_name": "IHSC-1DW-15-200",
                "group_desc": "IHSC-1DW-15-200"
            }, {
                "_id": "IHSC-1GBEW-15-200",
                "_displayName": "IHSC-1GBEW-15-200",
                "worksheet_type": "VISO_SW",
                "item_pricing_group": "IHSC-1GBEW-15-200",
                "group_name": "IHSC-1GBEW-15-200",
                "group_desc": "IHSC-1GBEW-15-200"
            }, {
                "_id": "IHSC-1W-15-200",
                "_displayName": "IHSC-1W-15-200",
                "worksheet_type": "VISO_SW",
                "item_pricing_group": "IHSC-1W-15-200",
                "group_name": "IHSC-1W-15-200",
                "group_desc": "IHSC-1W-15-200"
            }, {
                "_id": "IHSCE-1-15-200",
                "_displayName": "IHSCE-1-15-200",
                "worksheet_type": "VISO_SW",
                "item_pricing_group": "IHSCE-1-15-200",
                "group_name": "IHSCE-1-15-200",
                "group_desc": "IHSCE-1-15-200"
            }, {
                "_id": "IHSCE-1D-15-200",
                "_displayName": "IHSCE-1D-15-200",
                "worksheet_type": "VISO_SW",
                "item_pricing_group": "IHSCE-1D-15-200",
                "group_name": "IHSCE-1D-15-200",
                "group_desc": "IHSCE-1D-15-200"
            }, {
                "_id": "IHSCE-1DTE-15-200",
                "_displayName": "IHSCE-1DTE-15-200",
                "worksheet_type": "VISO_SW",
                "item_pricing_group": "IHSCE-1DTE-15-200",
                "group_name": "IHSCE-1DTE-15-200",
                "group_desc": "IHSCE-1DTE-15-200"
            }, {
                "_id": "IHSCE-1GBE-15-200",
                "_displayName": "IHSCE-1GBE-15-200",
                "worksheet_type": "VISO_SW",
                "item_pricing_group": "IHSCE-1GBE-15-200",
                "group_name": "IHSCE-1GBE-15-200",
                "group_desc": "IHSCE-1GBE-15-200"
            }, {
                "_id": "IHSCE-1GEE-15-200",
                "_displayName": "IHSCE-1GEE-15-200",
                "worksheet_type": "VISO_SW",
                "item_pricing_group": "IHSCE-1GEE-15-200",
                "group_name": "IHSCE-1GEE-15-200",
                "group_desc": "IHSCE-1GEE-15-200"
            }, {
                "_id": "IHSCE-1GTE-15-200",
                "_displayName": "IHSCE-1GTE-15-200",
                "worksheet_type": "VISO_SW",
                "item_pricing_group": "IHSCE-1GTE-15-200",
                "group_name": "IHSCE-1GTE-15-200",
                "group_desc": "IHSCE-1GTE-15-200"
            }, {
                "_id": "IHSE-1-15-200",
                "_displayName": "IHSE-1-15-200",
                "worksheet_type": "VISO_SW",
                "item_pricing_group": "IHSE-1-15-200",
                "group_name": "IHSE-1-15-200",
                "group_desc": "IHSE-1-15-200"
            }, {
                "_id": "IHSE-1D-15-200",
                "_displayName": "IHSE-1D-15-200",
                "worksheet_type": "VISO_SW",
                "item_pricing_group": "IHSE-1D-15-200",
                "group_name": "IHSE-1D-15-200",
                "group_desc": "IHSE-1D-15-200"
            }, {
                "_id": "IHSE-1DTE-15-200",
                "_displayName": "IHSE-1DTE-15-200",
                "worksheet_type": "VISO_SW",
                "item_pricing_group": "IHSE-1DTE-15-200",
                "group_name": "IHSE-1DTE-15-200",
                "group_desc": "IHSE-1DTE-15-200"
            }, {
                "_id": "IHSE-1GBE-15-200",
                "_displayName": "IHSE-1GBE-15-200",
                "worksheet_type": "VISO_SW",
                "item_pricing_group": "IHSE-1GBE-15-200",
                "group_name": "IHSE-1GBE-15-200",
                "group_desc": "IHSE-1GBE-15-200"
            }, {
                "_id": "IHSE-1GEE-15-200",
                "_displayName": "IHSE-1GEE-15-200",
                "worksheet_type": "VISO_SW",
                "item_pricing_group": "IHSE-1GEE-15-200",
                "group_name": "IHSE-1GEE-15-200",
                "group_desc": "IHSE-1GEE-15-200"
            }, {
                "_id": "IHSE-1GTE-15-200",
                "_displayName": "IHSE-1GTE-15-200",
                "worksheet_type": "VISO_SW",
                "item_pricing_group": "IHSE-1GTE-15-200",
                "group_name": "IHSE-1GTE-15-200",
                "group_desc": "IHSE-1GTE-15-200"
            }, {
                "_id": "IHSSA-1-30-600",
                "_displayName": "IHSSA-1-30-600",
                "worksheet_type": "VISO_SW",
                "item_pricing_group": "IHSSA-1-30-600",
                "group_name": "IHSSA-1-30-600",
                "group_desc": "IHSSA-1-30-600"
            }, {
                "_id": "IPH-1.5-10",
                "_displayName": "IPH-1.5-10",
                "worksheet_type": "VISO_SW",
                "item_pricing_group": "IPH-1.5-10",
                "group_name": "IPH-1.5-10",
                "group_desc": "IPH-1.5-10"
            }, {
                "_id": "IPS-1.5-10",
                "_displayName": "IPS-1.5-10",
                "worksheet_type": "VISO_SW",
                "item_pricing_group": "IPS-1.5-10",
                "group_name": "IPS-1.5-10",
                "group_desc": "IPS-1.5-10"
            }, {
                "_id": "IPSSA-1-30-600",
                "_displayName": "IPSSA-1-30-600",
                "worksheet_type": "VISO_SW",
                "item_pricing_group": "IPSSA-1-30-600",
                "group_name": "IPSSA-1-30-600",
                "group_desc": "IPSSA-1-30-600"
            }, {
                "_id": "IPSSA-2-100-1500",
                "_displayName": "IPSSA-2-100-1500",
                "worksheet_type": "VISO_SW",
                "item_pricing_group": "IPSSA-2-100-1500",
                "group_name": "IPSSA-2-100-1500",
                "group_desc": "IPSSA-2-100-1500"
            }, {
                "_id": "IPSSA-2H-100-4500",
                "_displayName": "IPSSA-2H-100-4500",
                "worksheet_type": "VISO_SW",
                "item_pricing_group": "IPSSA-2H-100-4500",
                "group_name": "IPSSA-2H-100-4500",
                "group_desc": "IPSSA-2H-100-4500"
            }, {
                "_id": "IRES-3-6",
                "_displayName": "IRES-3-6",
                "worksheet_type": "VISO_SW",
                "item_pricing_group": "IRES-3-6",
                "group_name": "IRES-3-6",
                "group_desc": "IRES-3-6"
            }, {
                "_id": "IRESM-3-6",
                "_displayName": "IRESM-3-6",
                "worksheet_type": "VISO_SW",
                "item_pricing_group": "IRESM-3-6",
                "group_name": "IRESM-3-6",
                "group_desc": "IRESM-3-6"
            }, {
                "_id": "IRMR-2-18",
                "_displayName": "IRMR-2-18",
                "worksheet_type": "VISO_SW",
                "item_pricing_group": "IRMR-2-18",
                "group_name": "IRMR-2-18",
                "group_desc": "IRMR-2-18"
            }, {
                "_id": "IRMRM-2-18",
                "_displayName": "IRMRM-2-18",
                "worksheet_type": "VISO_SW",
                "item_pricing_group": "IRMRM-2-18",
                "group_name": "IRMRM-2-18",
                "group_desc": "IRMRM-2-18"
            }, {
                "_id": "ISSFRS-2-100-4500",
                "_displayName": "ISSFRS-2-100-4500",
                "worksheet_type": "VISO_SW",
                "item_pricing_group": "ISSFRS-2-100-4500",
                "group_name": "ISSFRS-2-100-4500",
                "group_desc": "ISSFRS-2-100-4500"
            }, {
                "_id": "ISSFRS-3-100-4500",
                "_displayName": "ISSFRS-3-100-4500",
                "worksheet_type": "VISO_SW",
                "item_pricing_group": "ISSFRS-3-100-4500",
                "group_name": "ISSFRS-3-100-4500",
                "group_desc": "ISSFRS-3-100-4500"
            }]
     